; generated by Slic3r 1.2.9 on 2017-05-17 at 09:53:35

; external perimeters extrusion width = 0.40mm
; perimeters extrusion width = 0.67mm
; infill extrusion width = 0.67mm
; solid infill extrusion width = 0.67mm
; top infill extrusion width = 0.67mm

M107
M190 S25 ; set bed temperature
M104 S220 ; set temperature
G28 ; home all axes
G1 Z3 F100 ; lift nozzle

M109 S220 ; wait for temperature to be reached
G21 ; set units to millimeters
G90 ; use absolute coordinates
M82 ; use absolute distances for extrusion
G92 E0
G1 Z0.200 F3000.000
G1 X69.847 Y46.992 F3000.000
G1 X71.593 Y45.755 E0.03880 F1200.000
G1 X74.000 Y45.229 E0.08348
G1 X116.000 Y45.229 E0.84512
G1 X118.102 Y45.625 E0.88392
G1 X119.916 Y46.760 E0.92272
G1 X121.191 Y48.478 E0.96151
G1 X121.771 Y51.000 E1.00844
G1 X121.771 Y119.000 E2.24157
G1 X121.375 Y121.102 E2.28037
G1 X120.240 Y122.916 E2.31916
G1 X118.522 Y124.191 E2.35796
G1 X116.000 Y124.771 E2.40489
G1 X54.000 Y124.771 E3.52921
G1 X51.898 Y124.375 E3.56801
G1 X50.084 Y123.240 E3.60681
G1 X48.809 Y121.522 E3.64560
G1 X48.229 Y119.000 E3.69253
G1 X48.229 Y99.000 E4.05522
G1 X48.673 Y96.780 E4.09627
G1 X68.673 Y48.780 E5.03925
G1 X69.814 Y47.042 E5.07696
G1 X70.174 Y47.209 F3000.000
G1 X71.883 Y46.048 E5.11442 F1200.000
G1 X74.000 Y45.614 E5.15361
G1 X116.000 Y45.614 E5.91525
G1 X118.028 Y46.011 E5.95272
G1 X119.757 Y47.141 E5.99018
G1 X120.933 Y48.840 E6.02765
G1 X121.386 Y51.000 E6.06767
G1 X121.386 Y119.000 E7.30081
G1 X120.989 Y121.028 E7.33827
G1 X119.859 Y122.757 E7.37574
G1 X118.160 Y123.933 E7.41320
G1 X116.000 Y124.386 E7.45323
G1 X54.000 Y124.386 E8.57756
G1 X51.972 Y123.989 E8.61502
G1 X50.243 Y122.859 E8.65249
G1 X49.067 Y121.160 E8.68996
G1 X48.614 Y119.000 E8.72998
G1 X48.614 Y99.000 E9.09267
G1 X49.029 Y96.929 E9.13097
G1 X69.029 Y48.929 E10.07396
G1 X70.141 Y47.259 E10.11034
G92 E0
G1 X73.422 Y50.760 F3000.000
G1 X73.760 Y50.422 E0.00869 F1200.000
G1 X116.240 Y50.422 E0.77902
G1 X116.578 Y50.760 E0.78771
G1 X116.578 Y119.240 E2.02953
G1 X116.240 Y119.578 E2.03822
G1 X53.760 Y119.578 E3.17124
G1 X53.422 Y119.240 E3.17993
G1 X53.422 Y98.760 E3.55130
G1 X53.760 Y98.422 E3.55999
G1 X73.196 Y98.422 E3.91244
G1 X73.422 Y98.196 E3.91823
G1 X73.422 Y50.820 E4.77735
G1 X73.807 Y50.920 F3000.000
G1 X73.920 Y50.807 E4.78024 F1200.000
G1 X116.080 Y50.807 E5.54478
G1 X116.193 Y50.920 E5.54768
G1 X116.193 Y119.080 E6.78370
G1 X116.080 Y119.193 E6.78660
G1 X53.920 Y119.193 E7.91382
G1 X53.807 Y119.080 E7.91672
G1 X53.807 Y98.920 E8.28230
G1 X53.920 Y98.807 E8.28520
G1 X73.581 Y98.807 E8.64174
G1 X73.807 Y98.581 E8.64753
G1 X73.807 Y50.980 E9.51075
G92 E0
G1 X114.611 Y100.389 F3000.000
G1 X114.611 Y117.611 E0.31229 F1200.000
G1 X55.389 Y117.611 E1.38623
G1 X55.389 Y100.389 E1.69853
G1 X114.551 Y100.389 E2.77137
G1 X114.225 Y100.775 F3000.000
G1 X114.225 Y117.225 E3.06968 F1200.000
G1 X55.775 Y117.225 E4.12963
G1 X55.775 Y100.775 E4.42794
G1 X114.165 Y100.775 E5.48680
G1 X114.625 Y100.775 F3000.000
G1 X114.611 Y99.611 F3000.000
G1 X75.389 Y99.611 E6.19805 F1200.000
G1 X75.389 Y52.389 E7.05437
G1 X114.611 Y52.389 E7.76562
G1 X114.611 Y99.551 E8.62086
G1 X114.225 Y99.225 F3000.000
G1 X75.775 Y99.225 E9.31812 F1200.000
G1 X75.775 Y52.775 E10.16046
G1 X114.225 Y52.775 E10.85772
G1 X114.225 Y99.165 E11.69897
G1 X114.225 Y99.625 F3000.000
G1 X74.611 Y99.611 F3000.000
G1 X74.611 Y51.611 E12.56942 F1200.000
G1 X115.389 Y51.611 E13.30891
G1 X115.389 Y118.389 E14.51990
G1 X54.611 Y118.389 E15.62208
G1 X54.611 Y99.611 E15.96262
G1 X74.551 Y99.611 E16.32422
G1 X74.225 Y99.225 F3000.000
G1 X74.225 Y51.225 E17.19466 F1200.000
G1 X115.775 Y51.225 E17.94814
G1 X115.775 Y118.775 E19.17311
G1 X54.225 Y118.775 E20.28928
G1 X54.225 Y99.225 E20.64381
G1 X74.165 Y99.225 E21.00540
G1 X74.625 Y99.225 F3000.000
G1 X75.590 Y99.803 F3000.000
G1 X74.803 Y100.000 E21.03725 F600.000
G1 X55.197 Y100.000 E21.80773
G1 X55.034 Y100.034 E21.81426
G1 X55.000 Y100.197 E21.82080
G1 X55.000 Y117.803 E22.51268
G1 X55.034 Y117.966 E22.51921
G1 X55.197 Y118.000 E22.52575
G1 X114.803 Y118.000 E24.86807
G1 X114.966 Y117.966 E24.87460
G1 X115.000 Y117.803 E24.88114
G1 X115.000 Y100.197 E25.57302
G1 X114.803 Y99.410 E25.60487
G1 X75.000 Y99.951 F3000.000
G1 X75.000 Y52.197 E27.48143 F600.000
G1 X75.034 Y52.034 E27.48797
G1 X75.197 Y52.000 E27.49450
G1 X114.803 Y52.000 E29.05090
G1 X114.966 Y52.034 E29.05743
G1 X115.000 Y52.197 E29.06397
G1 X115.000 Y99.803 E30.93474
G1 X114.951 Y100.000 E30.94270
G1 X75.197 Y100.000 E32.50489
G1 X75.058 Y99.965 E32.51049
G1 Z0.400 F3000.000
G1 X55.307 Y100.307 F3000.000
G1 X114.693 Y100.307 E33.68029 F2400.000
G1 X114.693 Y117.693 E34.02275
G1 X55.307 Y117.693 E35.19255
G1 X55.307 Y100.367 E35.53383
G1 X55.800 Y100.800 F3000.000
G1 X114.200 Y100.800 E36.18761 F2400.000
G1 X114.200 Y117.200 E36.37120
G1 X55.800 Y117.200 E37.02498
G1 X55.800 Y100.860 E37.20790
G1 X55.800 Y100.400 F3000.000
G1 X75.307 Y99.693 F3000.000
G1 X75.307 Y52.307 E38.14131 F2400.000
G1 X114.693 Y52.307 E38.91714
G1 X114.693 Y99.693 E39.85056
G1 X75.367 Y99.693 E40.62520
G1 X75.800 Y99.200 F3000.000
G1 X75.800 Y52.800 E41.14464 F2400.000
G1 X114.200 Y52.800 E41.57452
G1 X114.200 Y99.200 E42.09396
G1 X75.860 Y99.200 E42.52317
G1 X75.400 Y99.200 F3000.000
G1 X74.693 Y99.693 F3000.000
G1 X74.693 Y51.693 E43.46869 F2400.000
G1 X115.307 Y51.693 E44.26873
G1 X115.307 Y118.307 E45.58093
G1 X54.693 Y118.307 E46.77494
G1 X54.693 Y99.693 E47.14161
G1 X74.633 Y99.693 E47.53440
G1 X74.200 Y99.200 F3000.000
G1 X74.200 Y51.200 E48.07175 F2400.000
G1 X115.800 Y51.200 E48.53745
G1 X115.800 Y118.800 E49.29422
G1 X54.200 Y118.800 E49.98382
G1 X54.200 Y99.200 E50.20324
G1 X74.140 Y99.200 E50.42646
G1 X74.600 Y99.200 F3000.000
G1 Z0.600 F3000.000
G1 X55.307 Y100.307 F3000.000
G1 X114.693 Y100.307 E51.59625 F2400.000
G1 X114.693 Y117.693 E51.93872
G1 X55.307 Y117.693 E53.10851
G1 X55.307 Y100.367 E53.44980
G1 X55.800 Y100.800 F3000.000
G1 X114.200 Y100.800 E54.10357 F2400.000
G1 X114.200 Y117.200 E54.28717
G1 X55.800 Y117.200 E54.94094
G1 X55.800 Y100.860 E55.12386
G1 X55.800 Y100.400 F3000.000
G1 X75.307 Y99.693 F3000.000
G1 X75.307 Y52.307 E56.05728 F2400.000
G1 X114.693 Y52.307 E56.83311
G1 X114.693 Y99.693 E57.76652
G1 X75.367 Y99.693 E58.54117
G1 X75.800 Y99.200 F3000.000
G1 X75.800 Y52.800 E59.06061 F2400.000
G1 X114.200 Y52.800 E59.49049
G1 X114.200 Y99.200 E60.00992
G1 X75.860 Y99.200 E60.43913
G1 X75.400 Y99.200 F3000.000
G1 X74.693 Y99.693 F3000.000
G1 X74.693 Y51.693 E61.38465 F2400.000
G1 X115.307 Y51.693 E62.18469
G1 X115.307 Y118.307 E63.49689
G1 X54.693 Y118.307 E64.69090
G1 X54.693 Y99.693 E65.05758
G1 X74.633 Y99.693 E65.45037
G1 X74.200 Y99.200 F3000.000
G1 X74.200 Y51.200 E65.98771 F2400.000
G1 X115.800 Y51.200 E66.45342
G1 X115.800 Y118.800 E67.21018
G1 X54.200 Y118.800 E67.89978
G1 X54.200 Y99.200 E68.11920
G1 X74.140 Y99.200 E68.34242
G1 X74.600 Y99.200 F3000.000
G1 Z0.800 F3000.000
G1 X55.307 Y100.307 F3000.000
G1 X114.693 Y100.307 E69.51222 F2400.000
G1 X114.693 Y117.693 E69.85468
G1 X55.307 Y117.693 E71.02448
G1 X55.307 Y100.367 E71.36576
G1 X55.800 Y100.800 F3000.000
G1 X114.200 Y100.800 E72.01954 F2400.000
G1 X114.200 Y117.200 E72.20313
G1 X55.800 Y117.200 E72.85691
G1 X55.800 Y100.860 E73.03983
G1 X55.800 Y100.400 F3000.000
G1 X75.307 Y99.693 F3000.000
G1 X75.307 Y52.307 E73.97324 F2400.000
G1 X114.693 Y52.307 E74.74907
G1 X114.693 Y99.693 E75.68249
G1 X75.367 Y99.693 E76.45713
G1 X75.800 Y99.200 F3000.000
G1 X75.800 Y52.800 E76.97657 F2400.000
G1 X114.200 Y52.800 E77.40645
G1 X114.200 Y99.200 E77.92589
G1 X75.860 Y99.200 E78.35510
G1 X75.400 Y99.200 F3000.000
G1 X74.693 Y99.693 F3000.000
G1 X74.693 Y51.693 E79.30062 F2400.000
G1 X115.307 Y51.693 E80.10066
G1 X115.307 Y118.307 E81.41286
G1 X54.693 Y118.307 E82.60687
G1 X54.693 Y99.693 E82.97355
G1 X74.633 Y99.693 E83.36633
G1 X74.200 Y99.200 F3000.000
G1 X74.200 Y51.200 E83.90368 F2400.000
G1 X115.800 Y51.200 E84.36938
G1 X115.800 Y118.800 E85.12615
G1 X54.200 Y118.800 E85.81575
G1 X54.200 Y99.200 E86.03517
G1 X74.140 Y99.200 E86.25839
G1 X74.600 Y99.200 F3000.000
G1 Z1.000 F3000.000
G1 X55.307 Y100.307 F3000.000
G1 X114.693 Y100.307 E87.42819 F2400.000
G1 X114.693 Y117.693 E87.77065
G1 X55.307 Y117.693 E88.94045
G1 X55.307 Y100.367 E89.28173
G1 X55.800 Y100.800 F3000.000
G1 X114.200 Y100.800 E89.93550 F2400.000
G1 X114.200 Y117.200 E90.11910
G1 X55.800 Y117.200 E90.77287
G1 X55.800 Y100.860 E90.95579
G1 X55.800 Y100.400 F3000.000
G1 X75.307 Y99.693 F3000.000
G1 X75.307 Y52.307 E91.88921 F2400.000
G1 X114.693 Y52.307 E92.66504
G1 X114.693 Y99.693 E93.59845
G1 X75.367 Y99.693 E94.37310
G1 X75.800 Y99.200 F3000.000
G1 X75.800 Y52.800 E94.89254 F2400.000
G1 X114.200 Y52.800 E95.32242
G1 X114.200 Y99.200 E95.84185
G1 X75.860 Y99.200 E96.27106
G1 X75.400 Y99.200 F3000.000
G1 X74.693 Y99.693 F3000.000
G1 X74.693 Y51.693 E97.21658 F2400.000
G1 X115.307 Y51.693 E98.01663
G1 X115.307 Y118.307 E99.32882
G1 X54.693 Y118.307 E100.52283
G1 X54.693 Y99.693 E100.88951
G1 X74.633 Y99.693 E101.28230
G1 X74.200 Y99.200 F3000.000
G1 X74.200 Y51.200 E101.81965 F2400.000
G1 X115.800 Y51.200 E102.28535
G1 X115.800 Y118.800 E103.04212
G1 X54.200 Y118.800 E103.73171
G1 X54.200 Y99.200 E103.95113
G1 X74.140 Y99.200 E104.17436
G1 X74.600 Y99.200 F3000.000
G1 Z1.200 F3000.000
G1 X55.307 Y100.307 F3000.000
G1 X114.693 Y100.307 E105.34415 F2400.000
G1 X114.693 Y117.693 E105.68662
G1 X55.307 Y117.693 E106.85641
G1 X55.307 Y100.367 E107.19769
G1 X55.800 Y100.800 F3000.000
G1 X114.200 Y100.800 E107.85147 F2400.000
G1 X114.200 Y117.200 E108.03506
G1 X55.800 Y117.200 E108.68884
G1 X55.800 Y100.860 E108.87176
G1 X55.800 Y100.400 F3000.000
G1 X75.307 Y99.693 F3000.000
G1 X75.307 Y52.307 E109.80518 F2400.000
G1 X114.693 Y52.307 E110.58100
G1 X114.693 Y99.693 E111.51442
G1 X75.367 Y99.693 E112.28907
G1 X75.800 Y99.200 F3000.000
G1 X75.800 Y52.800 E112.80850 F2400.000
G1 X114.200 Y52.800 E113.23838
G1 X114.200 Y99.200 E113.75782
G1 X75.860 Y99.200 E114.18703
G1 X75.400 Y99.200 F3000.000
G1 X74.693 Y99.693 F3000.000
G1 X74.693 Y51.693 E115.13255 F2400.000
G1 X115.307 Y51.693 E115.93259
G1 X115.307 Y118.307 E117.24479
G1 X54.693 Y118.307 E118.43880
G1 X54.693 Y99.693 E118.80548
G1 X74.633 Y99.693 E119.19826
G1 X74.200 Y99.200 F3000.000
G1 X74.200 Y51.200 E119.73561 F2400.000
G1 X115.800 Y51.200 E120.20131
G1 X115.800 Y118.800 E120.95808
G1 X54.200 Y118.800 E121.64768
G1 X54.200 Y99.200 E121.86710
G1 X74.140 Y99.200 E122.09032
G1 X74.600 Y99.200 F3000.000
G1 Z1.400 F3000.000
G1 X55.307 Y100.307 F3000.000
G1 X114.693 Y100.307 E123.26012 F2400.000
G1 X114.693 Y117.693 E123.60258
G1 X55.307 Y117.693 E124.77238
G1 X55.307 Y100.367 E125.11366
G1 X55.800 Y100.800 F3000.000
G1 X114.200 Y100.800 E125.76743 F2400.000
G1 X114.200 Y117.200 E125.95103
G1 X55.800 Y117.200 E126.60480
G1 X55.800 Y100.860 E126.78773
G1 X55.800 Y100.400 F3000.000
G1 X75.307 Y99.693 F3000.000
G1 X75.307 Y52.307 E127.72114 F2400.000
G1 X114.693 Y52.307 E128.49697
G1 X114.693 Y99.693 E129.43038
G1 X75.367 Y99.693 E130.20503
G1 X75.800 Y99.200 F3000.000
G1 X75.800 Y52.800 E130.72447 F2400.000
G1 X114.200 Y52.800 E131.15435
G1 X114.200 Y99.200 E131.67379
G1 X75.860 Y99.200 E132.10299
G1 X75.400 Y99.200 F3000.000
G1 X74.693 Y99.693 F3000.000
G1 X74.693 Y51.693 E133.04852 F2400.000
G1 X115.307 Y51.693 E133.84856
G1 X115.307 Y118.307 E135.16076
G1 X54.693 Y118.307 E136.35476
G1 X54.693 Y99.693 E136.72144
G1 X74.633 Y99.693 E137.11423
G1 X74.200 Y99.200 F3000.000
G1 X74.200 Y51.200 E137.65158 F2400.000
G1 X115.800 Y51.200 E138.11728
G1 X115.800 Y118.800 E138.87405
G1 X54.200 Y118.800 E139.56365
G1 X54.200 Y99.200 E139.78306
G1 X74.140 Y99.200 E140.00629
G1 X74.600 Y99.200 F3000.000
G1 Z1.600 F3000.000
G1 X55.307 Y100.307 F3000.000
G1 X114.693 Y100.307 E141.17608 F2400.000
G1 X114.693 Y117.693 E141.51855
G1 X55.307 Y117.693 E142.68834
G1 X55.307 Y100.367 E143.02962
G1 X55.800 Y100.800 F3000.000
G1 X114.200 Y100.800 E143.68340 F2400.000
G1 X114.200 Y117.200 E143.86699
G1 X55.800 Y117.200 E144.52077
G1 X55.800 Y100.860 E144.70369
G1 X55.800 Y100.400 F3000.000
G1 X75.307 Y99.693 F3000.000
G1 X75.307 Y52.307 E145.63711 F2400.000
G1 X114.693 Y52.307 E146.41293
G1 X114.693 Y99.693 E147.34635
G1 X75.367 Y99.693 E148.12100
G1 X75.800 Y99.200 F3000.000
G1 X75.800 Y52.800 E148.64043 F2400.000
G1 X114.200 Y52.800 E149.07031
G1 X114.200 Y99.200 E149.58975
G1 X75.860 Y99.200 E150.01896
G1 X75.400 Y99.200 F3000.000
G1 X74.693 Y99.693 F3000.000
G1 X74.693 Y51.693 E150.96448 F2400.000
G1 X115.307 Y51.693 E151.76452
G1 X115.307 Y118.307 E153.07672
G1 X54.693 Y118.307 E154.27073
G1 X54.693 Y99.693 E154.63741
G1 X74.633 Y99.693 E155.03019
G1 X74.200 Y99.200 F3000.000
G1 X74.200 Y51.200 E155.56754 F2400.000
G1 X115.800 Y51.200 E156.03325
G1 X115.800 Y118.800 E156.79001
G1 X54.200 Y118.800 E157.47961
G1 X54.200 Y99.200 E157.69903
G1 X74.140 Y99.200 E157.92225
G1 X74.600 Y99.200 F3000.000
G1 Z1.800 F3000.000
G1 X55.307 Y100.307 F3000.000
G1 X114.693 Y100.307 E159.09205 F2400.000
G1 X114.693 Y117.693 E159.43451
G1 X55.307 Y117.693 E160.60431
G1 X55.307 Y100.367 E160.94559
G1 X55.800 Y100.800 F3000.000
G1 X114.200 Y100.800 E161.59936 F2400.000
G1 X114.200 Y117.200 E161.78296
G1 X55.800 Y117.200 E162.43673
G1 X55.800 Y100.860 E162.61966
G1 X55.800 Y100.400 F3000.000
G1 X75.307 Y99.693 F3000.000
G1 X75.307 Y52.307 E163.55307 F2400.000
G1 X114.693 Y52.307 E164.32890
G1 X114.693 Y99.693 E165.26232
G1 X75.367 Y99.693 E166.03696
G1 X75.800 Y99.200 F3000.000
G1 X75.800 Y52.800 E166.55640 F2400.000
G1 X114.200 Y52.800 E166.98628
G1 X114.200 Y99.200 E167.50572
G1 X75.860 Y99.200 E167.93492
G1 X75.400 Y99.200 F3000.000
G1 X74.693 Y99.693 F3000.000
G1 X74.693 Y51.693 E168.88045 F2400.000
G1 X115.307 Y51.693 E169.68049
G1 X115.307 Y118.307 E170.99269
G1 X54.693 Y118.307 E172.18670
G1 X54.693 Y99.693 E172.55337
G1 X74.633 Y99.693 E172.94616
G1 X74.200 Y99.200 F3000.000
G1 X74.200 Y51.200 E173.48351 F2400.000
G1 X115.800 Y51.200 E173.94921
G1 X115.800 Y118.800 E174.70598
G1 X54.200 Y118.800 E175.39558
G1 X54.200 Y99.200 E175.61499
G1 X74.140 Y99.200 E175.83822
G1 X74.600 Y99.200 F3000.000
G1 Z2.000 F3000.000
G1 X55.307 Y100.307 F3000.000
G1 X114.693 Y100.307 E177.00801 F2400.000
G1 X114.693 Y117.693 E177.35048
G1 X55.307 Y117.693 E178.52027
G1 X55.307 Y100.367 E178.86156
G1 X55.800 Y100.800 F3000.000
G1 X114.200 Y100.800 E179.51533 F2400.000
G1 X114.200 Y117.200 E179.69892
G1 X55.800 Y117.200 E180.35270
G1 X55.800 Y100.860 E180.53562
G1 X55.800 Y100.400 F3000.000
G1 X75.307 Y99.693 F3000.000
G1 X75.307 Y52.307 E181.46904 F2400.000
G1 X114.693 Y52.307 E182.24487
G1 X114.693 Y99.693 E183.17828
G1 X75.367 Y99.693 E183.95293
G1 X75.800 Y99.200 F3000.000
G1 X75.800 Y52.800 E184.47237 F2400.000
G1 X114.200 Y52.800 E184.90224
G1 X114.200 Y99.200 E185.42168
G1 X75.860 Y99.200 E185.85089
G1 X75.400 Y99.200 F3000.000
G1 X74.693 Y99.693 F3000.000
G1 X74.693 Y51.693 E186.79641 F2400.000
G1 X115.307 Y51.693 E187.59645
G1 X115.307 Y118.307 E188.90865
G1 X54.693 Y118.307 E190.10266
G1 X54.693 Y99.693 E190.46934
G1 X74.633 Y99.693 E190.86212
G1 X74.200 Y99.200 F3000.000
G1 X74.200 Y51.200 E191.39947 F2400.000
G1 X115.800 Y51.200 E191.86518
G1 X115.800 Y118.800 E192.62194
G1 X54.200 Y118.800 E193.31154
G1 X54.200 Y99.200 E193.53096
G1 X74.140 Y99.200 E193.75418
G1 X74.600 Y99.200 F3000.000
G1 Z2.200 F3000.000
G1 X55.307 Y100.307 F3000.000
G1 X114.693 Y100.307 E194.92398 F2400.000
G1 X114.693 Y117.693 E195.26644
G1 X55.307 Y117.693 E196.43624
G1 X55.307 Y100.367 E196.77752
G1 X55.800 Y100.800 F3000.000
G1 X114.200 Y100.800 E197.43130 F2400.000
G1 X114.200 Y117.200 E197.61489
G1 X55.800 Y117.200 E198.26867
G1 X55.800 Y100.860 E198.45159
G1 X55.800 Y100.400 F3000.000
G1 X75.307 Y99.693 F3000.000
G1 X75.307 Y52.307 E199.38500 F2400.000
G1 X114.693 Y52.307 E200.16083
G1 X114.693 Y99.693 E201.09425
G1 X75.367 Y99.693 E201.86889
G1 X75.800 Y99.200 F3000.000
G1 X75.800 Y52.800 E202.38833 F2400.000
G1 X114.200 Y52.800 E202.81821
G1 X114.200 Y99.200 E203.33765
G1 X75.860 Y99.200 E203.76686
G1 X75.400 Y99.200 F3000.000
G1 X74.693 Y99.693 F3000.000
G1 X74.693 Y51.693 E204.71238 F2400.000
G1 X115.307 Y51.693 E205.51242
G1 X115.307 Y118.307 E206.82462
G1 X54.693 Y118.307 E208.01863
G1 X54.693 Y99.693 E208.38530
G1 X74.633 Y99.693 E208.77809
G1 X74.200 Y99.200 F3000.000
G1 X74.200 Y51.200 E209.31544 F2400.000
G1 X115.800 Y51.200 E209.78114
G1 X115.800 Y118.800 E210.53791
G1 X54.200 Y118.800 E211.22751
G1 X54.200 Y99.200 E211.44692
G1 X74.140 Y99.200 E211.67015
G1 X74.600 Y99.200 F3000.000
G1 Z2.400 F3000.000
G1 X55.307 Y100.307 F3000.000
G1 X114.693 Y100.307 E212.83994 F2400.000
G1 X114.693 Y117.693 E213.18241
G1 X55.307 Y117.693 E214.35220
G1 X55.307 Y100.367 E214.69349
G1 X55.800 Y100.800 F3000.000
G1 X114.200 Y100.800 E215.34726 F2400.000
G1 X114.200 Y117.200 E215.53086
G1 X55.800 Y117.200 E216.18463
G1 X55.800 Y100.860 E216.36755
G1 X55.800 Y100.400 F3000.000
G1 X75.307 Y99.693 F3000.000
G1 X75.307 Y52.307 E217.30097 F2400.000
G1 X114.693 Y52.307 E218.07680
G1 X114.693 Y99.693 E219.01021
G1 X75.367 Y99.693 E219.78486
G1 X75.800 Y99.200 F3000.000
G1 X75.800 Y52.800 E220.30430 F2400.000
G1 X114.200 Y52.800 E220.73418
G1 X114.200 Y99.200 E221.25361
G1 X75.860 Y99.200 E221.68282
G1 X75.400 Y99.200 F3000.000
G1 X74.693 Y99.693 F3000.000
G1 X74.693 Y51.693 E222.62834 F2400.000
G1 X115.307 Y51.693 E223.42838
G1 X115.307 Y118.307 E224.74058
G1 X54.693 Y118.307 E225.93459
G1 X54.693 Y99.693 E226.30127
G1 X74.633 Y99.693 E226.69406
G1 X74.200 Y99.200 F3000.000
G1 X74.200 Y51.200 E227.23140 F2400.000
G1 X115.800 Y51.200 E227.69711
G1 X115.800 Y118.800 E228.45387
G1 X54.200 Y118.800 E229.14347
G1 X54.200 Y99.200 E229.36289
G1 X74.140 Y99.200 E229.58611
G1 X74.600 Y99.200 F3000.000
G1 Z2.600 F3000.000
G1 X55.307 Y100.307 F3000.000
G1 X114.693 Y100.307 E230.75591 F2400.000
G1 X114.693 Y117.693 E231.09837
G1 X55.307 Y117.693 E232.26817
G1 X55.307 Y100.367 E232.60945
G1 X55.800 Y100.800 F3000.000
G1 X114.200 Y100.800 E233.26323 F2400.000
G1 X114.200 Y117.200 E233.44682
G1 X55.800 Y117.200 E234.10060
G1 X55.800 Y100.860 E234.28352
G1 X55.800 Y100.400 F3000.000
G1 X75.307 Y99.693 F3000.000
G1 X75.307 Y52.307 E235.21693 F2400.000
G1 X114.693 Y52.307 E235.99276
G1 X114.693 Y99.693 E236.92618
G1 X75.367 Y99.693 E237.70082
G1 X75.800 Y99.200 F3000.000
G1 X75.800 Y52.800 E238.22026 F2400.000
G1 X114.200 Y52.800 E238.65014
G1 X114.200 Y99.200 E239.16958
G1 X75.860 Y99.200 E239.59879
G1 X75.400 Y99.200 F3000.000
G1 X74.693 Y99.693 F3000.000
G1 X74.693 Y51.693 E240.54431 F2400.000
G1 X115.307 Y51.693 E241.34435
G1 X115.307 Y118.307 E242.65655
G1 X54.693 Y118.307 E243.85056
G1 X54.693 Y99.693 E244.21724
G1 X74.633 Y99.693 E244.61002
G1 X74.200 Y99.200 F3000.000
G1 X74.200 Y51.200 E245.14737 F2400.000
G1 X115.800 Y51.200 E245.61307
G1 X115.800 Y118.800 E246.36984
G1 X54.200 Y118.800 E247.05944
G1 X54.200 Y99.200 E247.27886
G1 X74.140 Y99.200 E247.50208
G1 X74.600 Y99.200 F3000.000
G1 Z2.800 F3000.000
G1 X55.307 Y100.307 F3000.000
G1 X114.693 Y100.307 E248.67188 F2400.000
G1 X114.693 Y117.693 E249.01434
G1 X55.307 Y117.693 E250.18414
G1 X55.307 Y100.367 E250.52542
G1 X55.800 Y100.800 F3000.000
G1 X114.200 Y100.800 E251.17919 F2400.000
G1 X114.200 Y117.200 E251.36279
G1 X55.800 Y117.200 E252.01656
G1 X55.800 Y100.860 E252.19948
G1 X55.800 Y100.400 F3000.000
G1 X75.307 Y99.693 F3000.000
G1 X75.307 Y52.307 E253.13290 F2400.000
G1 X114.693 Y52.307 E253.90873
G1 X114.693 Y99.693 E254.84214
G1 X75.367 Y99.693 E255.61679
G1 X75.800 Y99.200 F3000.000
G1 X75.800 Y52.800 E256.13623 F2400.000
G1 X114.200 Y52.800 E256.56611
G1 X114.200 Y99.200 E257.08554
G1 X75.860 Y99.200 E257.51475
G1 X75.400 Y99.200 F3000.000
G1 X74.693 Y99.693 F3000.000
G1 X74.693 Y51.693 E258.46027 F2400.000
G1 X115.307 Y51.693 E259.26032
G1 X115.307 Y118.307 E260.57251
G1 X54.693 Y118.307 E261.76652
G1 X54.693 Y99.693 E262.13320
G1 X74.633 Y99.693 E262.52599
G1 X74.200 Y99.200 F3000.000
G1 X74.200 Y51.200 E263.06334 F2400.000
G1 X115.800 Y51.200 E263.52904
G1 X115.800 Y118.800 E264.28581
G1 X54.200 Y118.800 E264.97540
G1 X54.200 Y99.200 E265.19482
G1 X74.140 Y99.200 E265.41805
G1 X74.600 Y99.200 F3000.000
G1 Z3.000 F3000.000
G1 X55.307 Y100.307 F3000.000
G1 X114.693 Y100.307 E266.58784 F2400.000
G1 X114.693 Y117.693 E266.93031
G1 X55.307 Y117.693 E268.10010
G1 X55.307 Y100.367 E268.44138
G1 X55.800 Y100.800 F3000.000
G1 X114.200 Y100.800 E269.09516 F2400.000
G1 X114.200 Y117.200 E269.27875
G1 X55.800 Y117.200 E269.93253
G1 X55.800 Y100.860 E270.11545
G1 X55.800 Y100.400 F3000.000
G1 X75.307 Y99.693 F3000.000
G1 X75.307 Y52.307 E271.04887 F2400.000
G1 X114.693 Y52.307 E271.82469
G1 X114.693 Y99.693 E272.75811
G1 X75.367 Y99.693 E273.53276
G1 X75.800 Y99.200 F3000.000
G1 X75.800 Y52.800 E274.05219 F2400.000
G1 X114.200 Y52.800 E274.48207
G1 X114.200 Y99.200 E275.00151
G1 X75.860 Y99.200 E275.43072
G1 X75.400 Y99.200 F3000.000
G1 X74.693 Y99.693 F3000.000
G1 X74.693 Y51.693 E276.37624 F2400.000
G1 X115.307 Y51.693 E277.17628
G1 X115.307 Y118.307 E278.48848
G1 X54.693 Y118.307 E279.68249
G1 X54.693 Y99.693 E280.04917
G1 X74.633 Y99.693 E280.44195
G1 X74.200 Y99.200 F3000.000
G1 X74.200 Y51.200 E280.97930 F2400.000
G1 X115.800 Y51.200 E281.44500
G1 X115.800 Y118.800 E282.20177
G1 X54.200 Y118.800 E282.89137
G1 X54.200 Y99.200 E283.11079
G1 X74.140 Y99.200 E283.33401
G1 X74.600 Y99.200 F3000.000
G1 Z3.200 F3000.000
G1 X55.307 Y100.307 F3000.000
G1 X114.693 Y100.307 E284.50381 F2400.000
G1 X114.693 Y117.693 E284.84627
G1 X55.307 Y117.693 E286.01607
G1 X55.307 Y100.367 E286.35735
G1 X55.800 Y100.800 F3000.000
G1 X114.200 Y100.800 E287.01112 F2400.000
G1 X114.200 Y117.200 E287.19472
G1 X55.800 Y117.200 E287.84849
G1 X55.800 Y100.860 E288.03142
G1 X55.800 Y100.400 F3000.000
G1 X75.307 Y99.693 F3000.000
G1 X75.307 Y52.307 E288.96483 F2400.000
G1 X114.693 Y52.307 E289.74066
G1 X114.693 Y99.693 E290.67407
G1 X75.367 Y99.693 E291.44872
G1 X75.800 Y99.200 F3000.000
G1 X75.800 Y52.800 E291.96816 F2400.000
G1 X114.200 Y52.800 E292.39804
G1 X114.200 Y99.200 E292.91748
G1 X75.860 Y99.200 E293.34668
G1 X75.400 Y99.200 F3000.000
G1 X74.693 Y99.693 F3000.000
G1 X74.693 Y51.693 E294.29221 F2400.000
G1 X115.307 Y51.693 E295.09225
G1 X115.307 Y118.307 E296.40445
G1 X54.693 Y118.307 E297.59845
G1 X54.693 Y99.693 E297.96513
G1 X74.633 Y99.693 E298.35792
G1 X74.200 Y99.200 F3000.000
G1 X74.200 Y51.200 E298.89527 F2400.000
G1 X115.800 Y51.200 E299.36097
G1 X115.800 Y118.800 E300.11774
G1 X54.200 Y118.800 E300.80733
G1 X54.200 Y99.200 E301.02675
G1 X74.140 Y99.200 E301.24998
G1 X74.600 Y99.200 F3000.000
G1 Z3.400 F3000.000
G1 X55.307 Y100.307 F3000.000
G1 X114.693 Y100.307 E302.41977 F2400.000
G1 X114.693 Y117.693 E302.76224
G1 X55.307 Y117.693 E303.93203
G1 X55.307 Y100.367 E304.27331
G1 X55.800 Y100.800 F3000.000
G1 X114.200 Y100.800 E304.92709 F2400.000
G1 X114.200 Y117.200 E305.11068
G1 X55.800 Y117.200 E305.76446
G1 X55.800 Y100.860 E305.94738
G1 X55.800 Y100.400 F3000.000
G1 X75.307 Y99.693 F3000.000
G1 X75.307 Y52.307 E306.88080 F2400.000
G1 X114.693 Y52.307 E307.65662
G1 X114.693 Y99.693 E308.59004
G1 X75.367 Y99.693 E309.36469
G1 X75.800 Y99.200 F3000.000
G1 X75.800 Y52.800 E309.88412 F2400.000
G1 X114.200 Y52.800 E310.31400
G1 X114.200 Y99.200 E310.83344
G1 X75.860 Y99.200 E311.26265
G1 X75.400 Y99.200 F3000.000
G1 X74.693 Y99.693 F3000.000
G1 X74.693 Y51.693 E312.20817 F2400.000
G1 X115.307 Y51.693 E313.00821
G1 X115.307 Y118.307 E314.32041
G1 X54.693 Y118.307 E315.51442
G1 X54.693 Y99.693 E315.88110
G1 X74.633 Y99.693 E316.27388
G1 X74.200 Y99.200 F3000.000
G1 X74.200 Y51.200 E316.81123 F2400.000
G1 X115.800 Y51.200 E317.27694
G1 X115.800 Y118.800 E318.03370
G1 X54.200 Y118.800 E318.72330
G1 X54.200 Y99.200 E318.94272
G1 X74.140 Y99.200 E319.16594
G1 X74.600 Y99.200 F3000.000
G1 Z3.600 F3000.000
G1 X55.307 Y100.307 F3000.000
G1 X114.693 Y100.307 E320.33574 F2400.000
G1 X114.693 Y117.693 E320.67820
G1 X55.307 Y117.693 E321.84800
G1 X55.307 Y100.367 E322.18928
G1 X55.800 Y100.800 F3000.000
G1 X114.200 Y100.800 E322.84305 F2400.000
G1 X114.200 Y117.200 E323.02665
G1 X55.800 Y117.200 E323.68042
G1 X55.800 Y100.860 E323.86335
G1 X55.800 Y100.400 F3000.000
G1 X75.307 Y99.693 F3000.000
G1 X75.307 Y52.307 E324.79676 F2400.000
G1 X114.693 Y52.307 E325.57259
G1 X114.693 Y99.693 E326.50601
G1 X75.367 Y99.693 E327.28065
G1 X75.800 Y99.200 F3000.000
G1 X75.800 Y52.800 E327.80009 F2400.000
G1 X114.200 Y52.800 E328.22997
G1 X114.200 Y99.200 E328.74941
G1 X75.860 Y99.200 E329.17861
G1 X75.400 Y99.200 F3000.000
G1 X74.693 Y99.693 F3000.000
G1 X74.693 Y51.693 E330.12414 F2400.000
G1 X115.307 Y51.693 E330.92418
G1 X115.307 Y118.307 E332.23638
G1 X54.693 Y118.307 E333.43039
G1 X54.693 Y99.693 E333.79706
G1 X74.633 Y99.693 E334.18985
G1 X74.200 Y99.200 F3000.000
G1 X74.200 Y51.200 E334.72720 F2400.000
G1 X115.800 Y51.200 E335.19290
G1 X115.800 Y118.800 E335.94967
G1 X54.200 Y118.800 E336.63927
G1 X54.200 Y99.200 E336.85868
G1 X74.140 Y99.200 E337.08191
G1 X74.600 Y99.200 F3000.000
G1 Z3.800 F3000.000
G1 X55.307 Y100.307 F3000.000
G1 X114.693 Y100.307 E338.25170 F2400.000
G1 X114.693 Y117.693 E338.59417
G1 X55.307 Y117.693 E339.76396
G1 X55.307 Y100.367 E340.10524
G1 X55.800 Y100.800 F3000.000
G1 X114.200 Y100.800 E340.75902 F2400.000
G1 X114.200 Y117.200 E340.94261
G1 X55.800 Y117.200 E341.59639
G1 X55.800 Y100.860 E341.77931
G1 X55.800 Y100.400 F3000.000
G1 X75.307 Y99.693 F3000.000
G1 X75.307 Y52.307 E342.71273 F2400.000
G1 X114.693 Y52.307 E343.48856
G1 X114.693 Y99.693 E344.42197
G1 X75.367 Y99.693 E345.19662
G1 X75.800 Y99.200 F3000.000
G1 X75.800 Y52.800 E345.71605 F2400.000
G1 X114.200 Y52.800 E346.14593
G1 X114.200 Y99.200 E346.66537
G1 X75.860 Y99.200 E347.09458
G1 X75.400 Y99.200 F3000.000
G1 X74.693 Y99.693 F3000.000
G1 X74.693 Y51.693 E348.04010 F2400.000
G1 X115.307 Y51.693 E348.84014
G1 X115.307 Y118.307 E350.15234
G1 X54.693 Y118.307 E351.34635
G1 X54.693 Y99.693 E351.71303
G1 X74.633 Y99.693 E352.10581
G1 X74.200 Y99.200 F3000.000
G1 X74.200 Y51.200 E352.64316 F2400.000
G1 X115.800 Y51.200 E353.10887
G1 X115.800 Y118.800 E353.86563
G1 X54.200 Y118.800 E354.55523
G1 X54.200 Y99.200 E354.77465
G1 X74.140 Y99.200 E354.99787
G1 X74.600 Y99.200 F3000.000
G1 Z4.000 F3000.000
G1 X55.307 Y100.307 F3000.000
G1 X114.693 Y100.307 E356.16767 F2400.000
G1 X114.693 Y117.693 E356.51013
G1 X55.307 Y117.693 E357.67993
G1 X55.307 Y100.367 E358.02121
G1 X55.800 Y100.800 F3000.000
G1 X114.200 Y100.800 E358.67499 F2400.000
G1 X114.200 Y117.200 E358.85858
G1 X55.800 Y117.200 E359.51236
G1 X55.800 Y100.860 E359.69528
G1 X55.800 Y100.400 F3000.000
G1 X75.307 Y99.693 F3000.000
G1 X75.307 Y52.307 E360.62869 F2400.000
G1 X114.693 Y52.307 E361.40452
G1 X114.693 Y99.693 E362.33794
G1 X75.367 Y99.693 E363.11258
G1 X75.800 Y99.200 F3000.000
G1 X75.800 Y52.800 E363.63202 F2400.000
G1 X114.200 Y52.800 E364.06190
G1 X114.200 Y99.200 E364.58134
G1 X75.860 Y99.200 E365.01055
G1 X75.400 Y99.200 F3000.000
G1 X74.693 Y99.693 F3000.000
G1 X74.693 Y51.693 E365.95607 F2400.000
G1 X115.307 Y51.693 E366.75611
G1 X115.307 Y118.307 E368.06831
G1 X54.693 Y118.307 E369.26232
G1 X54.693 Y99.693 E369.62899
G1 X74.633 Y99.693 E370.02178
G1 X74.200 Y99.200 F3000.000
G1 X74.200 Y51.200 E370.55913 F2400.000
G1 X115.800 Y51.200 E371.02483
G1 X115.800 Y118.800 E371.78160
G1 X54.200 Y118.800 E372.47120
G1 X54.200 Y99.200 E372.69061
G1 X74.140 Y99.200 E372.91384
G1 X74.600 Y99.200 F3000.000
G1 Z4.200 F3000.000
G1 X55.307 Y100.307 F3000.000
G1 X114.693 Y100.307 E374.08363 F2400.000
G1 X114.693 Y117.693 E374.42610
G1 X55.307 Y117.693 E375.59589
G1 X55.307 Y100.367 E375.93718
G1 X55.800 Y100.800 F3000.000
G1 X114.200 Y100.800 E376.59095 F2400.000
G1 X114.200 Y117.200 E376.77455
G1 X55.800 Y117.200 E377.42832
G1 X55.800 Y100.860 E377.61124
G1 X55.800 Y100.400 F3000.000
G1 X75.307 Y99.693 F3000.000
G1 X75.307 Y52.307 E378.54466 F2400.000
G1 X114.693 Y52.307 E379.32049
G1 X114.693 Y99.693 E380.25390
G1 X75.367 Y99.693 E381.02855
G1 X75.800 Y99.200 F3000.000
G1 X75.800 Y52.800 E381.54799 F2400.000
G1 X114.200 Y52.800 E381.97787
G1 X114.200 Y99.200 E382.49730
G1 X75.860 Y99.200 E382.92651
G1 X75.400 Y99.200 F3000.000
G1 X74.693 Y99.693 F3000.000
G1 X74.693 Y51.693 E383.87203 F2400.000
G1 X115.307 Y51.693 E384.67207
G1 X115.307 Y118.307 E385.98427
G1 X54.693 Y118.307 E387.17828
G1 X54.693 Y99.693 E387.54496
G1 X74.633 Y99.693 E387.93775
G1 X74.200 Y99.200 F3000.000
G1 X74.200 Y51.200 E388.47509 F2400.000
G1 X115.800 Y51.200 E388.94080
G1 X115.800 Y118.800 E389.69756
G1 X54.200 Y118.800 E390.38716
G1 X54.200 Y99.200 E390.60658
G1 X74.140 Y99.200 E390.82980
G1 X74.600 Y99.200 F3000.000
G1 Z4.400 F3000.000
G1 X55.307 Y100.307 F3000.000
G1 X114.693 Y100.307 E391.99960 F2400.000
G1 X114.693 Y117.693 E392.34206
G1 X55.307 Y117.693 E393.51186
G1 X55.307 Y100.367 E393.85314
G1 X55.800 Y100.800 F3000.000
G1 X114.200 Y100.800 E394.50692 F2400.000
G1 X114.200 Y117.200 E394.69051
G1 X55.800 Y117.200 E395.34429
G1 X55.800 Y100.860 E395.52721
G1 X55.800 Y100.400 F3000.000
G1 X75.307 Y99.693 F3000.000
G1 X75.307 Y52.307 E396.46062 F2400.000
G1 X114.693 Y52.307 E397.23645
G1 X114.693 Y99.693 E398.16987
G1 X75.367 Y99.693 E398.94451
G1 X75.800 Y99.200 F3000.000
G1 X75.800 Y52.800 E399.46395 F2400.000
G1 X114.200 Y52.800 E399.89383
G1 X114.200 Y99.200 E400.41327
G1 X75.860 Y99.200 E400.84248
G1 X75.400 Y99.200 F3000.000
G1 X74.693 Y99.693 F3000.000
G1 X74.693 Y51.693 E401.78800 F2400.000
G1 X115.307 Y51.693 E402.58804
G1 X115.307 Y118.307 E403.90024
G1 X54.693 Y118.307 E405.09425
G1 X54.693 Y99.693 E405.46093
G1 X74.633 Y99.693 E405.85371
G1 X74.200 Y99.200 F3000.000
G1 X74.200 Y51.200 E406.39106 F2400.000
G1 X115.800 Y51.200 E406.85676
G1 X115.800 Y118.800 E407.61353
G1 X54.200 Y118.800 E408.30313
G1 X54.200 Y99.200 E408.52255
G1 X74.140 Y99.200 E408.74577
G1 X74.600 Y99.200 F3000.000
G1 Z4.600 F3000.000
G1 X55.307 Y100.307 F3000.000
G1 X114.693 Y100.307 E409.91557 F2400.000
G1 X114.693 Y117.693 E410.25803
G1 X55.307 Y117.693 E411.42782
G1 X55.307 Y100.367 E411.76911
G1 X55.800 Y100.800 F3000.000
G1 X114.200 Y100.800 E412.42288 F2400.000
G1 X114.200 Y117.200 E412.60648
G1 X55.800 Y117.200 E413.26025
G1 X55.800 Y100.860 E413.44317
G1 X55.800 Y100.400 F3000.000
G1 X75.307 Y99.693 F3000.000
G1 X75.307 Y52.307 E414.37659 F2400.000
G1 X114.693 Y52.307 E415.15242
G1 X114.693 Y99.693 E416.08583
G1 X75.367 Y99.693 E416.86048
G1 X75.800 Y99.200 F3000.000
G1 X75.800 Y52.800 E417.37992 F2400.000
G1 X114.200 Y52.800 E417.80980
G1 X114.200 Y99.200 E418.32923
G1 X75.860 Y99.200 E418.75844
G1 X75.400 Y99.200 F3000.000
G1 X74.693 Y99.693 F3000.000
G1 X74.693 Y51.693 E419.70396 F2400.000
G1 X115.307 Y51.693 E420.50401
G1 X115.307 Y118.307 E421.81620
G1 X54.693 Y118.307 E423.01021
G1 X54.693 Y99.693 E423.37689
G1 X74.633 Y99.693 E423.76968
G1 X74.200 Y99.200 F3000.000
G1 X74.200 Y51.200 E424.30703 F2400.000
G1 X115.800 Y51.200 E424.77273
G1 X115.800 Y118.800 E425.52950
G1 X54.200 Y118.800 E426.21909
G1 X54.200 Y99.200 E426.43851
G1 X74.140 Y99.200 E426.66174
G1 X74.600 Y99.200 F3000.000
G1 Z4.800 F3000.000
G1 X55.307 Y100.307 F3000.000
G1 X114.693 Y100.307 E427.83153 F2400.000
G1 X114.693 Y117.693 E428.17399
G1 X55.307 Y117.693 E429.34379
G1 X55.307 Y100.367 E429.68507
G1 X55.800 Y100.800 F3000.000
G1 X114.200 Y100.800 E430.33885 F2400.000
G1 X114.200 Y117.200 E430.52244
G1 X55.800 Y117.200 E431.17622
G1 X55.800 Y100.860 E431.35914
G1 X55.800 Y100.400 F3000.000
G1 X75.307 Y99.693 F3000.000
G1 X75.307 Y52.307 E432.29256 F2400.000
G1 X114.693 Y52.307 E433.06838
G1 X114.693 Y99.693 E434.00180
G1 X75.367 Y99.693 E434.77644
G1 X75.800 Y99.200 F3000.000
G1 X75.800 Y52.800 E435.29588 F2400.000
G1 X114.200 Y52.800 E435.72576
G1 X114.200 Y99.200 E436.24520
G1 X75.860 Y99.200 E436.67441
G1 X75.400 Y99.200 F3000.000
G1 X74.693 Y99.693 F3000.000
G1 X74.693 Y51.693 E437.61993 F2400.000
G1 X115.307 Y51.693 E438.41997
G1 X115.307 Y118.307 E439.73217
G1 X54.693 Y118.307 E440.92618
G1 X54.693 Y99.693 E441.29286
G1 X74.633 Y99.693 E441.68564
G1 X74.200 Y99.200 F3000.000
G1 X74.200 Y51.200 E442.22299 F2400.000
G1 X115.800 Y51.200 E442.68869
G1 X115.800 Y118.800 E443.44546
G1 X54.200 Y118.800 E444.13506
G1 X54.200 Y99.200 E444.35448
G1 X74.140 Y99.200 E444.57770
G1 X74.600 Y99.200 F3000.000
G1 Z5.000 F3000.000
G1 X55.307 Y100.307 F3000.000
G1 X114.693 Y100.307 E445.74750 F2400.000
G1 X114.693 Y117.693 E446.08996
G1 X55.307 Y117.693 E447.25976
G1 X55.307 Y100.367 E447.60104
G1 X55.800 Y100.800 F3000.000
G1 X114.200 Y100.800 E448.25481 F2400.000
G1 X114.200 Y117.200 E448.43841
G1 X55.800 Y117.200 E449.09218
G1 X55.800 Y100.860 E449.27511
G1 X55.800 Y100.400 F3000.000
G1 X75.307 Y99.693 F3000.000
G1 X75.307 Y52.307 E450.20852 F2400.000
G1 X114.693 Y52.307 E450.98435
G1 X114.693 Y99.693 E451.91776
G1 X75.367 Y99.693 E452.69241
G1 X75.800 Y99.200 F3000.000
G1 X75.800 Y52.800 E453.21185 F2400.000
G1 X114.200 Y52.800 E453.64173
G1 X114.200 Y99.200 E454.16117
G1 X75.860 Y99.200 E454.59037
G1 X75.400 Y99.200 F3000.000
G1 X74.693 Y99.693 F3000.000
G1 X74.693 Y51.693 E455.53589 F2400.000
G1 X115.307 Y51.693 E456.33594
G1 X115.307 Y118.307 E457.64814
G1 X54.693 Y118.307 E458.84214
G1 X54.693 Y99.693 E459.20882
G1 X74.633 Y99.693 E459.60161
G1 X74.200 Y99.200 F3000.000
G1 X74.200 Y51.200 E460.13896 F2400.000
G1 X115.800 Y51.200 E460.60466
G1 X115.800 Y118.800 E461.36143
G1 X54.200 Y118.800 E462.05102
G1 X54.200 Y99.200 E462.27044
G1 X74.140 Y99.200 E462.49367
G1 X74.600 Y99.200 F3000.000
G1 Z5.200 F3000.000
G1 X55.307 Y100.307 F3000.000
G1 X114.693 Y100.307 E463.66346 F2400.000
G1 X114.693 Y117.693 E464.00593
G1 X55.307 Y117.693 E465.17572
G1 X55.307 Y100.367 E465.51700
G1 X55.800 Y100.800 F3000.000
G1 X114.200 Y100.800 E466.17078 F2400.000
G1 X114.200 Y117.200 E466.35437
G1 X55.800 Y117.200 E467.00815
G1 X55.800 Y100.860 E467.19107
G1 X55.800 Y100.400 F3000.000
G1 X75.307 Y99.693 F3000.000
G1 X75.307 Y52.307 E468.12449 F2400.000
G1 X114.693 Y52.307 E468.90031
G1 X114.693 Y99.693 E469.83373
G1 X75.367 Y99.693 E470.60838
G1 X75.800 Y99.200 F3000.000
G1 X75.800 Y52.800 E471.12781 F2400.000
G1 X114.200 Y52.800 E471.55769
G1 X114.200 Y99.200 E472.07713
G1 X75.860 Y99.200 E472.50634
G1 X75.400 Y99.200 F3000.000
G1 X74.693 Y99.693 F3000.000
G1 X74.693 Y51.693 E473.45186 F2400.000
G1 X115.307 Y51.693 E474.25190
G1 X115.307 Y118.307 E475.56410
G1 X54.693 Y118.307 E476.75811
G1 X54.693 Y99.693 E477.12479
G1 X74.633 Y99.693 E477.51757
G1 X74.200 Y99.200 F3000.000
G1 X74.200 Y51.200 E478.05492 F2400.000
G1 X115.800 Y51.200 E478.52062
G1 X115.800 Y118.800 E479.27739
G1 X54.200 Y118.800 E479.96699
G1 X54.200 Y99.200 E480.18641
G1 X74.140 Y99.200 E480.40963
G1 X74.600 Y99.200 F3000.000
G1 Z5.400 F3000.000
G1 X55.307 Y100.307 F3000.000
G1 X114.693 Y100.307 E481.57943 F2400.000
G1 X114.693 Y117.693 E481.92189
G1 X55.307 Y117.693 E483.09169
G1 X55.307 Y100.367 E483.43297
G1 X55.800 Y100.800 F3000.000
G1 X114.200 Y100.800 E484.08674 F2400.000
G1 X114.200 Y117.200 E484.27034
G1 X55.800 Y117.200 E484.92411
G1 X55.800 Y100.860 E485.10704
G1 X55.800 Y100.400 F3000.000
G1 X75.307 Y99.693 F3000.000
G1 X75.307 Y52.307 E486.04045 F2400.000
G1 X114.693 Y52.307 E486.81628
G1 X114.693 Y99.693 E487.74969
G1 X75.367 Y99.693 E488.52434
G1 X75.800 Y99.200 F3000.000
G1 X75.800 Y52.800 E489.04378 F2400.000
G1 X114.200 Y52.800 E489.47366
G1 X114.200 Y99.200 E489.99310
G1 X75.860 Y99.200 E490.42230
G1 X75.400 Y99.200 F3000.000
G1 X74.693 Y99.693 F3000.000
G1 X74.693 Y51.693 E491.36783 F2400.000
G1 X115.307 Y51.693 E492.16787
G1 X115.307 Y118.307 E493.48007
G1 X54.693 Y118.307 E494.67408
G1 X54.693 Y99.693 E495.04075
G1 X74.633 Y99.693 E495.43354
G1 X74.200 Y99.200 F3000.000
G1 X74.200 Y51.200 E495.97089 F2400.000
G1 X115.800 Y51.200 E496.43659
G1 X115.800 Y118.800 E497.19336
G1 X54.200 Y118.800 E497.88296
G1 X54.200 Y99.200 E498.10237
G1 X74.140 Y99.200 E498.32560
G1 X74.600 Y99.200 F3000.000
G1 Z5.600 F3000.000
G1 X55.307 Y100.307 F3000.000
G1 X114.693 Y100.307 E499.49539 F2400.000
G1 X114.693 Y117.693 E499.83786
G1 X55.307 Y117.693 E501.00765
G1 X55.307 Y100.367 E501.34893
G1 X55.800 Y100.800 F3000.000
G1 X114.200 Y100.800 E502.00271 F2400.000
G1 X114.200 Y117.200 E502.18630
G1 X55.800 Y117.200 E502.84008
G1 X55.800 Y100.860 E503.02300
G1 X55.800 Y100.400 F3000.000
G1 X75.307 Y99.693 F3000.000
G1 X75.307 Y52.307 E503.95642 F2400.000
G1 X114.693 Y52.307 E504.73225
G1 X114.693 Y99.693 E505.66566
G1 X75.367 Y99.693 E506.44031
G1 X75.800 Y99.200 F3000.000
G1 X75.800 Y52.800 E506.95974 F2400.000
G1 X114.200 Y52.800 E507.38962
G1 X114.200 Y99.200 E507.90906
G1 X75.860 Y99.200 E508.33827
G1 X75.400 Y99.200 F3000.000
G1 X74.693 Y99.693 F3000.000
G1 X74.693 Y51.693 E509.28379 F2400.000
G1 X115.307 Y51.693 E510.08383
G1 X115.307 Y118.307 E511.39603
G1 X54.693 Y118.307 E512.59004
G1 X54.693 Y99.693 E512.95672
G1 X74.633 Y99.693 E513.34950
G1 X74.200 Y99.200 F3000.000
G1 X74.200 Y51.200 E513.88685 F2400.000
G1 X115.800 Y51.200 E514.35256
G1 X115.800 Y118.800 E515.10932
G1 X54.200 Y118.800 E515.79892
G1 X54.200 Y99.200 E516.01834
G1 X74.140 Y99.200 E516.24156
G1 X74.600 Y99.200 F3000.000
G1 Z5.800 F3000.000
G1 X55.307 Y100.307 F3000.000
G1 X114.693 Y100.307 E517.41136 F2400.000
G1 X114.693 Y117.693 E517.75382
G1 X55.307 Y117.693 E518.92362
G1 X55.307 Y100.367 E519.26490
G1 X55.800 Y100.800 F3000.000
G1 X114.200 Y100.800 E519.91868 F2400.000
G1 X114.200 Y117.200 E520.10227
G1 X55.800 Y117.200 E520.75604
G1 X55.800 Y100.860 E520.93897
G1 X55.800 Y100.400 F3000.000
G1 X75.307 Y99.693 F3000.000
G1 X75.307 Y52.307 E521.87238 F2400.000
G1 X114.693 Y52.307 E522.64821
G1 X114.693 Y99.693 E523.58163
G1 X75.367 Y99.693 E524.35627
G1 X75.800 Y99.200 F3000.000
G1 X75.800 Y52.800 E524.87571 F2400.000
G1 X114.200 Y52.800 E525.30559
G1 X114.200 Y99.200 E525.82503
G1 X75.860 Y99.200 E526.25424
G1 X75.400 Y99.200 F3000.000
G1 X74.693 Y99.693 F3000.000
G1 X74.693 Y51.693 E527.19976 F2400.000
G1 X115.307 Y51.693 E527.99980
G1 X115.307 Y118.307 E529.31200
G1 X54.693 Y118.307 E530.50601
G1 X54.693 Y99.693 E530.87268
G1 X74.633 Y99.693 E531.26547
G1 X74.200 Y99.200 F3000.000
G1 X74.200 Y51.200 E531.80282 F2400.000
G1 X115.800 Y51.200 E532.26852
G1 X115.800 Y118.800 E533.02529
G1 X54.200 Y118.800 E533.71489
G1 X54.200 Y99.200 E533.93430
G1 X74.140 Y99.200 E534.15753
G1 X74.600 Y99.200 F3000.000
G1 Z6.000 F3000.000
G1 X55.307 Y100.307 F3000.000
G1 X114.693 Y100.307 E535.32732 F2400.000
G1 X114.693 Y117.693 E535.66979
G1 X55.307 Y117.693 E536.83958
G1 X55.307 Y100.367 E537.18087
G1 X55.800 Y100.800 F3000.000
G1 X114.200 Y100.800 E537.83464 F2400.000
G1 X114.200 Y117.200 E538.01824
G1 X55.800 Y117.200 E538.67201
G1 X55.800 Y100.860 E538.85493
G1 X55.800 Y100.400 F3000.000
G1 X75.307 Y99.693 F3000.000
G1 X75.307 Y52.307 E539.78835 F2400.000
G1 X114.693 Y52.307 E540.56418
G1 X114.693 Y99.693 E541.49759
G1 X75.367 Y99.693 E542.27224
G1 X75.800 Y99.200 F3000.000
G1 X75.800 Y52.800 E542.79168 F2400.000
G1 X114.200 Y52.800 E543.22156
G1 X114.200 Y99.200 E543.74099
G1 X75.860 Y99.200 E544.17020
G1 X75.400 Y99.200 F3000.000
G1 X74.693 Y99.693 F3000.000
G1 X74.693 Y51.693 E545.11572 F2400.000
G1 X115.307 Y51.693 E545.91576
G1 X115.307 Y118.307 E547.22796
G1 X54.693 Y118.307 E548.42197
G1 X54.693 Y99.693 E548.78865
G1 X74.633 Y99.693 E549.18143
G1 X74.200 Y99.200 F3000.000
G1 X74.200 Y51.200 E549.71878 F2400.000
G1 X115.800 Y51.200 E550.18449
G1 X115.800 Y118.800 E550.94125
G1 X54.200 Y118.800 E551.63085
G1 X54.200 Y99.200 E551.85027
G1 X74.140 Y99.200 E552.07349
G1 X74.600 Y99.200 F3000.000
G1 Z6.200 F3000.000
G1 X55.307 Y100.307 F3000.000
G1 X114.693 Y100.307 E553.24329 F2400.000
G1 X114.693 Y117.693 E553.58575
G1 X55.307 Y117.693 E554.75555
G1 X55.307 Y100.367 E555.09683
G1 X55.800 Y100.800 F3000.000
G1 X114.200 Y100.800 E555.75061 F2400.000
G1 X114.200 Y117.200 E555.93420
G1 X55.800 Y117.200 E556.58798
G1 X55.800 Y100.860 E556.77090
G1 X55.800 Y100.400 F3000.000
G1 X75.307 Y99.693 F3000.000
G1 X75.307 Y52.307 E557.70431 F2400.000
G1 X114.693 Y52.307 E558.48014
G1 X114.693 Y99.693 E559.41356
G1 X75.367 Y99.693 E560.18820
G1 X75.800 Y99.200 F3000.000
G1 X75.800 Y52.800 E560.70764 F2400.000
G1 X114.200 Y52.800 E561.13752
G1 X114.200 Y99.200 E561.65696
G1 X75.860 Y99.200 E562.08617
G1 X75.400 Y99.200 F3000.000
G1 X74.693 Y99.693 F3000.000
G1 X74.693 Y51.693 E563.03169 F2400.000
G1 X115.307 Y51.693 E563.83173
G1 X115.307 Y118.307 E565.14393
G1 X54.693 Y118.307 E566.33794
G1 X54.693 Y99.693 E566.70461
G1 X74.633 Y99.693 E567.09740
G1 X74.200 Y99.200 F3000.000
G1 X74.200 Y51.200 E567.63475 F2400.000
G1 X115.800 Y51.200 E568.10045
G1 X115.800 Y118.800 E568.85722
G1 X54.200 Y118.800 E569.54682
G1 X54.200 Y99.200 E569.76624
G1 X74.140 Y99.200 E569.98946
G1 X74.600 Y99.200 F3000.000
G1 Z6.400 F3000.000
G1 X55.307 Y100.307 F3000.000
G1 X114.693 Y100.307 E571.15925 F2400.000
G1 X114.693 Y117.693 E571.50172
G1 X55.307 Y117.693 E572.67151
G1 X55.307 Y100.367 E573.01280
G1 X55.800 Y100.800 F3000.000
G1 X114.200 Y100.800 E573.66657 F2400.000
G1 X114.200 Y117.200 E573.85017
G1 X55.800 Y117.200 E574.50394
G1 X55.800 Y100.860 E574.68686
G1 X55.800 Y100.400 F3000.000
G1 X75.307 Y99.693 F3000.000
G1 X75.307 Y52.307 E575.62028 F2400.000
G1 X114.693 Y52.307 E576.39611
G1 X114.693 Y99.693 E577.32952
G1 X75.367 Y99.693 E578.10417
G1 X75.800 Y99.200 F3000.000
G1 X75.800 Y52.800 E578.62361 F2400.000
G1 X114.200 Y52.800 E579.05349
G1 X114.200 Y99.200 E579.57292
G1 X75.860 Y99.200 E580.00213
G1 X75.400 Y99.200 F3000.000
G1 X74.693 Y99.693 F3000.000
G1 X74.693 Y51.693 E580.94765 F2400.000
G1 X115.307 Y51.693 E581.74769
G1 X115.307 Y118.307 E583.05989
G1 X54.693 Y118.307 E584.25390
G1 X54.693 Y99.693 E584.62058
G1 X74.633 Y99.693 E585.01337
G1 X74.200 Y99.200 F3000.000
G1 X74.200 Y51.200 E585.55072 F2400.000
G1 X115.800 Y51.200 E586.01642
G1 X115.800 Y118.800 E586.77318
G1 X54.200 Y118.800 E587.46278
G1 X54.200 Y99.200 E587.68220
G1 X74.140 Y99.200 E587.90542
G1 X74.600 Y99.200 F3000.000
G1 Z6.600 F3000.000
G1 X55.307 Y100.307 F3000.000
G1 X114.693 Y100.307 E589.07522 F2400.000
G1 X114.693 Y117.693 E589.41768
G1 X55.307 Y117.693 E590.58748
G1 X55.307 Y100.367 E590.92876
G1 X55.800 Y100.800 F3000.000
G1 X114.200 Y100.800 E591.58254 F2400.000
G1 X114.200 Y117.200 E591.76613
G1 X55.800 Y117.200 E592.41991
G1 X55.800 Y100.860 E592.60283
G1 X55.800 Y100.400 F3000.000
G1 X75.307 Y99.693 F3000.000
G1 X75.307 Y52.307 E593.53624 F2400.000
G1 X114.693 Y52.307 E594.31207
G1 X114.693 Y99.693 E595.24549
G1 X75.367 Y99.693 E596.02013
G1 X75.800 Y99.200 F3000.000
G1 X75.800 Y52.800 E596.53957 F2400.000
G1 X114.200 Y52.800 E596.96945
G1 X114.200 Y99.200 E597.48889
G1 X75.860 Y99.200 E597.91810
G1 X75.400 Y99.200 F3000.000
G1 X74.693 Y99.693 F3000.000
G1 X74.693 Y51.693 E598.86362 F2400.000
G1 X115.307 Y51.693 E599.66366
G1 X115.307 Y118.307 E600.97586
G1 X54.693 Y118.307 E602.16987
G1 X54.693 Y99.693 E602.53655
G1 X74.633 Y99.693 E602.92933
G1 X74.200 Y99.200 F3000.000
G1 X74.200 Y51.200 E603.46668 F2400.000
G1 X115.800 Y51.200 E603.93238
G1 X115.800 Y118.800 E604.68915
G1 X54.200 Y118.800 E605.37875
G1 X54.200 Y99.200 E605.59817
G1 X74.140 Y99.200 E605.82139
G1 X74.600 Y99.200 F3000.000
G1 Z6.800 F3000.000
G1 X55.307 Y100.307 F3000.000
G1 X114.693 Y100.307 E606.99119 F2400.000
G1 X114.693 Y117.693 E607.33365
G1 X55.307 Y117.693 E608.50345
G1 X55.307 Y100.367 E608.84473
G1 X55.800 Y100.800 F3000.000
G1 X114.200 Y100.800 E609.49850 F2400.000
G1 X114.200 Y117.200 E609.68210
G1 X55.800 Y117.200 E610.33587
G1 X55.800 Y100.860 E610.51880
G1 X55.800 Y100.400 F3000.000
G1 X75.307 Y99.693 F3000.000
G1 X75.307 Y52.307 E611.45221 F2400.000
G1 X114.693 Y52.307 E612.22804
G1 X114.693 Y99.693 E613.16145
G1 X75.367 Y99.693 E613.93610
G1 X75.800 Y99.200 F3000.000
G1 X75.800 Y52.800 E614.45554 F2400.000
G1 X114.200 Y52.800 E614.88542
G1 X114.200 Y99.200 E615.40485
G1 X75.860 Y99.200 E615.83406
G1 X75.400 Y99.200 F3000.000
G1 X74.693 Y99.693 F3000.000
G1 X74.693 Y51.693 E616.77958 F2400.000
G1 X115.307 Y51.693 E617.57963
G1 X115.307 Y118.307 E618.89183
G1 X54.693 Y118.307 E620.08583
G1 X54.693 Y99.693 E620.45251
G1 X74.633 Y99.693 E620.84530
G1 X74.200 Y99.200 F3000.000
G1 X74.200 Y51.200 E621.38265 F2400.000
G1 X115.800 Y51.200 E621.84835
G1 X115.800 Y118.800 E622.60512
G1 X54.200 Y118.800 E623.29471
G1 X54.200 Y99.200 E623.51413
G1 X74.140 Y99.200 E623.73736
G1 X74.600 Y99.200 F3000.000
G1 Z7.000 F3000.000
G1 X55.307 Y100.307 F3000.000
G1 X114.693 Y100.307 E624.90715 F2400.000
G1 X114.693 Y117.693 E625.24962
G1 X55.307 Y117.693 E626.41941
G1 X55.307 Y100.367 E626.76069
G1 X55.800 Y100.800 F3000.000
G1 X114.200 Y100.800 E627.41447 F2400.000
G1 X114.200 Y117.200 E627.59806
G1 X55.800 Y117.200 E628.25184
G1 X55.800 Y100.860 E628.43476
G1 X55.800 Y100.400 F3000.000
G1 X75.307 Y99.693 F3000.000
G1 X75.307 Y52.307 E629.36818 F2400.000
G1 X114.693 Y52.307 E630.14400
G1 X114.693 Y99.693 E631.07742
G1 X75.367 Y99.693 E631.85207
G1 X75.800 Y99.200 F3000.000
G1 X75.800 Y52.800 E632.37150 F2400.000
G1 X114.200 Y52.800 E632.80138
G1 X114.200 Y99.200 E633.32082
G1 X75.860 Y99.200 E633.75003
G1 X75.400 Y99.200 F3000.000
G1 X74.693 Y99.693 F3000.000
G1 X74.693 Y51.693 E634.69555 F2400.000
G1 X115.307 Y51.693 E635.49559
G1 X115.307 Y118.307 E636.80779
G1 X54.693 Y118.307 E638.00180
G1 X54.693 Y99.693 E638.36848
G1 X74.633 Y99.693 E638.76126
G1 X74.200 Y99.200 F3000.000
G1 X74.200 Y51.200 E639.29861 F2400.000
G1 X115.800 Y51.200 E639.76431
G1 X115.800 Y118.800 E640.52108
G1 X54.200 Y118.800 E641.21068
G1 X54.200 Y99.200 E641.43010
G1 X74.140 Y99.200 E641.65332
G1 X74.600 Y99.200 F3000.000
G1 Z7.200 F3000.000
G1 X55.307 Y100.307 F3000.000
G1 X114.693 Y100.307 E642.82312 F2400.000
G1 X114.693 Y117.693 E643.16558
G1 X55.307 Y117.693 E644.33538
G1 X55.307 Y100.367 E644.67666
G1 X55.800 Y100.800 F3000.000
G1 X114.200 Y100.800 E645.33043 F2400.000
G1 X114.200 Y117.200 E645.51403
G1 X55.800 Y117.200 E646.16780
G1 X55.800 Y100.860 E646.35073
G1 X55.800 Y100.400 F3000.000
G1 X75.307 Y99.693 F3000.000
G1 X75.307 Y52.307 E647.28414 F2400.000
G1 X114.693 Y52.307 E648.05997
G1 X114.693 Y99.693 E648.99338
G1 X75.367 Y99.693 E649.76803
G1 X75.800 Y99.200 F3000.000
G1 X75.800 Y52.800 E650.28747 F2400.000
G1 X114.200 Y52.800 E650.71735
G1 X114.200 Y99.200 E651.23679
G1 X75.860 Y99.200 E651.66599
G1 X75.400 Y99.200 F3000.000
G1 X74.693 Y99.693 F3000.000
G1 X74.693 Y51.693 E652.61152 F2400.000
G1 X115.307 Y51.693 E653.41156
G1 X115.307 Y118.307 E654.72376
G1 X54.693 Y118.307 E655.91777
G1 X54.693 Y99.693 E656.28444
G1 X74.633 Y99.693 E656.67723
G1 X74.200 Y99.200 F3000.000
G1 X74.200 Y51.200 E657.21458 F2400.000
G1 X115.800 Y51.200 E657.68028
G1 X115.800 Y118.800 E658.43705
G1 X54.200 Y118.800 E659.12665
G1 X54.200 Y99.200 E659.34606
G1 X74.140 Y99.200 E659.56929
G1 X74.600 Y99.200 F3000.000
G1 Z7.400 F3000.000
G1 X55.307 Y100.307 F3000.000
G1 X114.693 Y100.307 E660.73908 F2400.000
G1 X114.693 Y117.693 E661.08155
G1 X55.307 Y117.693 E662.25134
G1 X55.307 Y100.367 E662.59262
G1 X55.800 Y100.800 F3000.000
G1 X114.200 Y100.800 E663.24640 F2400.000
G1 X114.200 Y117.200 E663.42999
G1 X55.800 Y117.200 E664.08377
G1 X55.800 Y100.860 E664.26669
G1 X55.800 Y100.400 F3000.000
G1 X75.307 Y99.693 F3000.000
G1 X75.307 Y52.307 E665.20011 F2400.000
G1 X114.693 Y52.307 E665.97594
G1 X114.693 Y99.693 E666.90935
G1 X75.367 Y99.693 E667.68400
G1 X75.800 Y99.200 F3000.000
G1 X75.800 Y52.800 E668.20343 F2400.000
G1 X114.200 Y52.800 E668.63331
G1 X114.200 Y99.200 E669.15275
G1 X75.860 Y99.200 E669.58196
G1 X75.400 Y99.200 F3000.000
G1 X74.693 Y99.693 F3000.000
G1 X74.693 Y51.693 E670.52748 F2400.000
G1 X115.307 Y51.693 E671.32752
G1 X115.307 Y118.307 E672.63972
G1 X54.693 Y118.307 E673.83373
G1 X54.693 Y99.693 E674.20041
G1 X74.633 Y99.693 E674.59319
G1 X74.200 Y99.200 F3000.000
G1 X74.200 Y51.200 E675.13054 F2400.000
G1 X115.800 Y51.200 E675.59625
G1 X115.800 Y118.800 E676.35301
G1 X54.200 Y118.800 E677.04261
G1 X54.200 Y99.200 E677.26203
G1 X74.140 Y99.200 E677.48525
G1 X74.600 Y99.200 F3000.000
G1 Z7.600 F3000.000
G1 X55.307 Y100.307 F3000.000
G1 X114.693 Y100.307 E678.65505 F2400.000
G1 X114.693 Y117.693 E678.99751
G1 X55.307 Y117.693 E680.16731
G1 X55.307 Y100.367 E680.50859
G1 X55.800 Y100.800 F3000.000
G1 X114.200 Y100.800 E681.16236 F2400.000
G1 X114.200 Y117.200 E681.34596
G1 X55.800 Y117.200 E681.99973
G1 X55.800 Y100.860 E682.18266
G1 X55.800 Y100.400 F3000.000
G1 X75.307 Y99.693 F3000.000
G1 X75.307 Y52.307 E683.11607 F2400.000
G1 X114.693 Y52.307 E683.89190
G1 X114.693 Y99.693 E684.82532
G1 X75.367 Y99.693 E685.59996
G1 X75.800 Y99.200 F3000.000
G1 X75.800 Y52.800 E686.11940 F2400.000
G1 X114.200 Y52.800 E686.54928
G1 X114.200 Y99.200 E687.06872
G1 X75.860 Y99.200 E687.49792
G1 X75.400 Y99.200 F3000.000
G1 X74.693 Y99.693 F3000.000
G1 X74.693 Y51.693 E688.44345 F2400.000
G1 X115.307 Y51.693 E689.24349
G1 X115.307 Y118.307 E690.55569
G1 X54.693 Y118.307 E691.74970
G1 X54.693 Y99.693 E692.11637
G1 X74.633 Y99.693 E692.50916
G1 X74.200 Y99.200 F3000.000
G1 X74.200 Y51.200 E693.04651 F2400.000
G1 X115.800 Y51.200 E693.51221
G1 X115.800 Y118.800 E694.26898
G1 X54.200 Y118.800 E694.95858
G1 X54.200 Y99.200 E695.17799
G1 X74.140 Y99.200 E695.40122
G1 X74.600 Y99.200 F3000.000
G1 Z7.800 F3000.000
G1 X55.307 Y100.307 F3000.000
G1 X114.693 Y100.307 E696.57101 F2400.000
G1 X114.693 Y117.693 E696.91348
G1 X55.307 Y117.693 E698.08327
G1 X55.307 Y100.367 E698.42456
G1 X55.800 Y100.800 F3000.000
G1 X114.200 Y100.800 E699.07833 F2400.000
G1 X114.200 Y117.200 E699.26192
G1 X55.800 Y117.200 E699.91570
G1 X55.800 Y100.860 E700.09862
G1 X55.800 Y100.400 F3000.000
G1 X75.307 Y99.693 F3000.000
G1 X75.307 Y52.307 E701.03204 F2400.000
G1 X114.693 Y52.307 E701.80787
G1 X114.693 Y99.693 E702.74128
G1 X75.367 Y99.693 E703.51593
G1 X75.800 Y99.200 F3000.000
G1 X75.800 Y52.800 E704.03537 F2400.000
G1 X114.200 Y52.800 E704.46524
G1 X114.200 Y99.200 E704.98468
G1 X75.860 Y99.200 E705.41389
G1 X75.400 Y99.200 F3000.000
G1 X74.693 Y99.693 F3000.000
G1 X74.693 Y51.693 E706.35941 F2400.000
G1 X115.307 Y51.693 E707.15945
G1 X115.307 Y118.307 E708.47165
G1 X54.693 Y118.307 E709.66566
G1 X54.693 Y99.693 E710.03234
G1 X74.633 Y99.693 E710.42512
G1 X74.200 Y99.200 F3000.000
G1 X74.200 Y51.200 E710.96247 F2400.000
G1 X115.800 Y51.200 E711.42818
G1 X115.800 Y118.800 E712.18494
G1 X54.200 Y118.800 E712.87454
G1 X54.200 Y99.200 E713.09396
G1 X74.140 Y99.200 E713.31718
G1 X74.600 Y99.200 F3000.000
G1 Z8.000 F3000.000
G92 E0
G1 X55.307 Y100.307 F3000.000
G1 X114.693 Y100.307 E1.16980 F2400.000
G1 X114.693 Y117.693 E1.51226
G1 X55.307 Y117.693 E2.68206
G1 X55.307 Y100.367 E3.02334
G1 X55.800 Y100.800 F3000.000
G1 X114.200 Y100.800 E3.67711 F2400.000
G1 X114.200 Y117.200 E3.86071
G1 X55.800 Y117.200 E4.51448
G1 X55.800 Y100.860 E4.69740
G1 X55.800 Y100.400 F3000.000
G92 E0
G1 X75.307 Y99.693 F3000.000
G1 X75.307 Y52.307 E0.93342 F2400.000
G1 X114.693 Y52.307 E1.70924
G1 X114.693 Y99.693 E2.64266
G1 X75.367 Y99.693 E3.41730
G1 X75.800 Y99.200 F3000.000
G1 X75.800 Y52.800 E3.93674 F2400.000
G1 X114.200 Y52.800 E4.36662
G1 X114.200 Y99.200 E4.88606
G1 X75.860 Y99.200 E5.31527
G1 X75.400 Y99.200 F3000.000
G1 X74.693 Y99.693 F3000.000
G1 X74.693 Y51.693 E6.26079 F2400.000
G1 X115.307 Y51.693 E7.06083
G1 X115.307 Y118.307 E8.37303
G1 X54.693 Y118.307 E9.56704
G1 X54.693 Y99.693 E9.93372
G1 X74.633 Y99.693 E10.32650
G1 X74.200 Y99.200 F3000.000
G1 X74.200 Y51.200 E10.86385 F2400.000
G1 X115.800 Y51.200 E11.32955
G1 X115.800 Y118.800 E12.08632
G1 X54.200 Y118.800 E12.77592
G1 X54.200 Y99.200 E12.99534
G1 X74.140 Y99.200 E13.21856
G1 X74.600 Y99.200 F3000.000
G92 E0
M104 S0 ; turn off temperature
G28 X0  ; home X axis
M84     ; disable motors

; filament used = 750.9mm (4.8cm3)

; avoid_crossing_perimeters = 0
; bed_shape = 0x0,170x0,170x170,0x170
; bed_temperature = 25
; before_layer_gcode = 
; bridge_acceleration = 0
; bridge_fan_speed = 100
; brim_width = 1
; complete_objects = 0
; cooling = 1
; default_acceleration = 0
; disable_fan_first_layers = 3
; duplicate_distance = 6
; end_gcode = M104 S0 ; turn off temperature\nG28 X0  ; home X axis\nM84     ; disable motors\n
; extruder_clearance_height = 20
; extruder_clearance_radius = 20
; extruder_offset = 0x0
; extrusion_axis = E
; extrusion_multiplier = 1
; fan_always_on = 0
; fan_below_layer_time = 20
; filament_colour = #000000
; filament_diameter = 2.85
; first_layer_acceleration = 0
; first_layer_bed_temperature = 25
; first_layer_extrusion_width = 150%
; first_layer_speed = 50%
; first_layer_temperature = 220
; gcode_arcs = 0
; gcode_comments = 0
; gcode_flavor = reprap
; infill_acceleration = 0
; infill_first = 0
; layer_gcode = 
; max_fan_speed = 100
; max_print_speed = 50
; max_volumetric_speed = 0
; min_fan_speed = 35
; min_print_speed = 10
; min_skirt_length = 0
; notes = 
; nozzle_diameter = 0.4
; only_retract_when_crossing_perimeters = 1
; ooze_prevention = 0
; output_filename_format = [input_filename_base].gcode
; perimeter_acceleration = 0
; post_process = 
; pressure_advance = 0
; resolution = 0
; retract_before_travel = 2
; retract_layer_change = 0
; retract_length = 0
; retract_length_toolchange = 10
; retract_lift = 0
; retract_restart_extra = 0
; retract_restart_extra_toolchange = 0
; retract_speed = 40
; skirt_distance = 5
; skirt_height = 1
; skirts = 2
; slowdown_below_layer_time = 5
; spiral_vase = 0
; standby_temperature_delta = -5
; start_gcode = G28 ; home all axes\nG1 Z3 F100 ; lift nozzle\n
; temperature = 220
; threads = 2
; toolchange_gcode = 
; travel_speed = 50
; use_firmware_retraction = 0
; use_relative_e_distances = 0
; use_volumetric_e = 0
; vibration_limit = 0
; wipe = 0
; z_offset = -0.1
; dont_support_bridges = 1
; extrusion_width = 0
; first_layer_height = 0.3
; infill_only_where_needed = 0
; interface_shells = 0
; layer_height = 0.2
; raft_layers = 0
; seam_position = nearest
; support_material = 0
; support_material_angle = 0
; support_material_contact_distance = 0.2
; support_material_enforce_layers = 0
; support_material_extruder = 1
; support_material_extrusion_width = 0
; support_material_interface_extruder = 1
; support_material_interface_layers = 3
; support_material_interface_spacing = 0
; support_material_interface_speed = 100%
; support_material_pattern = pillars
; support_material_spacing = 2.5
; support_material_speed = 40
; support_material_threshold = 0
; xy_size_compensation = 0
; bottom_solid_layers = 3
; bridge_flow_ratio = 1
; bridge_speed = 40
; external_fill_pattern = rectilinear
; external_perimeter_extrusion_width = 0
; external_perimeter_speed = 40
; external_perimeters_first = 0
; extra_perimeters = 1
; fill_angle = 45
; fill_density = 60%
; fill_pattern = rectilinear
; gap_fill_speed = 20
; infill_every_layers = 1
; infill_extruder = 1
; infill_extrusion_width = 0
; infill_overlap = 15%
; infill_speed = 30
; overhangs = 1
; perimeter_extruder = 1
; perimeter_extrusion_width = 0
; perimeter_speed = 40
; perimeters = 3
; small_perimeter_speed = 20
; solid_infill_below_area = 70
; solid_infill_every_layers = 0
; solid_infill_extruder = 1
; solid_infill_extrusion_width = 0
; solid_infill_speed = 30
; thin_walls = 1
; top_infill_extrusion_width = 0
; top_solid_infill_speed = 20
; top_solid_layers = 3
